wpa_supplicant EAP-FAST PAC file - version 1
START
PAC-Type=1
PAC-Key=eff1f9c3170a78d9d53c785b5d8cd0c391856ba5a6ace99282620348195fa6c4
PAC-Opaque=180a7d9a1bfd3840344334503304222cb5f571877f1c4bb5f5f4ef001ad24a73ed2851c247e75619b6630c9e6d91a4637694d2e81ffd9164150dea73090db589
PAC-Info=00030004000990aa00040010101112131415161718191a1b1c1d1e1f00050008757365726e616d650007000b686f73746170642d777065000a00020001
A-ID=101112131415161718191a1b1c1d1e1f
I-ID=757365726e616d65
I-ID-txt=username
A-ID-Info=686f73746170642d777065
A-ID-Info-txt=hostapd-wpe
END
